<?xml version="1.0" encoding="UTF-8" standalone="no"?>
<svg
   xmlns:dc="http://purl.org/dc/elements/1.1/"
   xmlns:cc="http://creativecommons.org/ns#"
   xmlns:rdf="http://www.w3.org/1999/02/22-rdf-syntax-ns#"
   xmlns:svg="http://www.w3.org/2000/svg"
   xmlns="http://www.w3.org/2000/svg"
   xmlns:xlink="http://www.w3.org/1999/xlink"
   xmlns:sodipodi="http://sodipodi.sourceforge.net/DTD/sodipodi-0.dtd"
   xmlns:inkscape="http://www.inkscape.org/namespaces/inkscape"
   width="1266"
   height="900"
   viewBox="0 0 1266 900"
   version="1.1"
   id="svg35"
   inkscape:version="1.0 (262b4497e3, 2020-09-04)"
   sodipodi:docname="polygon_mapping_master.svg">
  <defs
     id="defs29" />
  <sodipodi:namedview
     id="base"
     pagecolor="#ffffff"
     bordercolor="#666666"
     borderopacity="1.0"
     inkscape:pageopacity="0.0"
     inkscape:pageshadow="2"
     inkscape:zoom="4.8997558"
     inkscape:cx="1071.1462"
     inkscape:cy="190.97817"
     inkscape:document-units="px"
     inkscape:current-layer="layer1"
     inkscape:document-rotation="0"
     showgrid="false"
     units="px"
     inkscape:window-width="1848"
     inkscape:window-height="1016"
     inkscape:window-x="72"
     inkscape:window-y="27"
     inkscape:window-maximized="1" />
  <metadata
     id="metadata32">
    <rdf:RDF>
      <cc:Work
         rdf:about="">
        <dc:format>image/svg+xml</dc:format>
        <dc:type
           rdf:resource="http://purl.org/dc/dcmitype/StillImage" />
        <dc:title />
      </cc:Work>
    </rdf:RDF>
  </metadata>
  <g
     inkscape:label="Layer 1"
     inkscape:groupmode="layer"
     id="layer1">
    <image
       sodipodi:absref="/home/stefan/Dropbox/Coding/data_painting/images/sneyder_normalized.png"
       xlink:href="sneyder_normalized.png"
       width="1266"
       height="900"
       preserveAspectRatio="none"
       id="image47"
       x="0"
       y="0"
       style="fill:#a8a690;fill-opacity:1" />
    <path
       style="fill:none;stroke:#000000;stroke-width:1px;stroke-linecap:butt;stroke-linejoin:miter;stroke-opacity:1"
       d="M 0,0 H 1266 L 1266.4034,13.650191 L 1266.2342,31.546797 L 1256.6665,31.992305 L 1249.1247,24.340591 L 1249.9874,13.199395 L 1246.5721,13.508055 L 1246.6507,23.627475 L 1244.0465,36.221182 H 1244.0859 L 1202.031,36.521727 L 1201.0002,24.572502 L 1197.8346,19.172376 L 1194.0614,17.297139 L 1192.5769,13.999929 H 1189.5514 L 1189.1208,32.910475 L 1185.9967,41.470996 L 1173.1266,40.842072 L 1171.7221,36.253422 L 1171.8746,13.936906 L 1160.5702,14.12458 L 1160.0531,23.488262 L 1159.7591,31.110441 L 1146.858,31.320818 L 1145.2741,25.445736 L 1144.9569,13.50432 H 1140.7925 L 1141.3873,20.742461 L 1128.1791,21.208919 L 1124.9841,13.502339 L 1121.2282,13.431053 L 1120.6344,54.93114 L 1106.0262,54.494924 L 1104.8462,12.576587 L 1076.2255,13.07868 L 1076.1594,18.944356 L 1068.0771,18.427727 L 1066.61,13.85453 L 1056.5721,14.69302 L 1056.4928,24.05158 L 1034.1562,27.616266 L 1018.3519,26.579824 L 1008.4668,25.031517 L 1007.8151,13.896708 L 992.3706,13.976004 L 992.99789,27.45236 L 990.85636,36.765243 L 984.09051,42.018678 L 977.76576,40.611662 L 975.22988,31.152367 L 975.51917,12.745432 L 909.26573,12.709806 L 909.61672,36.325537 L 894.70622,38.382367 L 892.43292,17.686892 L 893.23293,13.489993 L 887.60042,13.175784 L 887.3353,20.794281 L 871.35053,22.65705 L 871.03945,13.650165 L 827.91912,13.480037 L 827.77762,21.944694 L 826.31594,22.785199 L 826.38298,28.498661 L 807.56821,29.279363 L 807.31438,13.825954 L 794.40499,15.383754 V 15.383754 L 794.25145,20.03938 L 780.82643,24.402043 L 775.87543,14.083702 L 757.00375,14.004405 L 757.47951,23.312036 L 741.45087,24.636197 L 738.53156,15.362098 L 724.41279,14.505581 L 722.95982,19.021872 L 713.54893,20.055417 L 707.02643,17.755875 L 706.56795,14.584581 L 698.10921,15.095224 L 696.92085,25.693702 L 689.38629,26.913211 L 683.52846,23.209915 L 683.17934,13.489251 L 673.52215,14.172299 L 672.71919,47.248721 L 670.81649,54.818591 L 659.65018,56.632917 L 655.37002,53.129833 L 656.71852,28.348987 L 655.68677,14.970696 V 14.970696 L 647.46085,15.329596 V 15.329596 L 646.07795,19.714151 L 634.73111,20.18991 L 632.23589,14.642282 L 621.14686,13.858421 L 619.30074,41.128412 L 611.35055,44.119388 L 604.10548,40.655437 V 13.386135 L 583.25544,13.022715 L 577.72331,13.150873 L 575.70907,21.744307 L 575.33617,30.327549 V 30.327549 L 566.34232,31.46894 L 558.1213,29.396431 L 538.0595,30.329678 L 535.98292,16.807035 L 538.25107,13.420181 L 524.74571,13.120867 L 503.88909,13.581217 L 486.21677,24.885716 L 484.25571,20.825622 L 459.90752,21.842607 L 446.58502,19.920375 L 444.85307,11.53067 L 426.91313,11.913922 L 425.3875,27.529187 L 412.88576,29.97802 L 410.28162,27.918774 L 409.45305,12.448438 L 400.01379,12.500127 L 397.77752,26.298108 L 399.52187,31.540375 L 376.81579,32.501081 L 353.55825,27.749074 L 349.50106,18.99375 L 350.83157,12.596403 H 343.71878 L 345.56122,28.679154 L 337.56949,34.257915 V 34.257915 L 328.57078,29.498099 L 329.11582,12.753607 L 311.83827,11.608997 L 310.96607,26.322129 L 275.67559,27.763366 L 274.05405,24.281433 L 272.20978,12.254796 L 255.72074,11.607461 L 255.31908,21.913204 H 255.38172 L 250.23559,24.848668 L 233.35124,23.897133 L 232.95661,11.532528 L 225.26468,11.373945 L 224.73351,26.248199 L 171.9913,25.930683 L 172.69337,14.624325 L 169.3225,14.703612 L 169.41625,23.168993 L 157.22209,23.854562 L 155.89538,12.463891 V 12.403485 L 149.05205,12.473288 L 147.85238,24.18945 L 114.2563,23.766654 L 106.21154,26.985274 L 99.743661,26.369141 L 99.10931,13.29978 L 87.882894,13.284886 L 89.541254,19.42248 L 87.218894,27.293148 L 60.650352,26.854411 L 56.91958,23.030539 L 57.183679,16.095648 L 52.523464,16.174944 L 49.272394,25.696424 L 38.759198,28.103708 L 22.740159,26.598365 L 20.694533,16.539655 L -0.14676058,17.075593 Z"
       id="cloud"
       inkscape:label="#cloud" />
    <circle
       id="path125"
       cx="116.68584"
       cy="24.23003"
       r="1.9435034" />
    <circle
       id="path125-3"
       cx="86.376007"
       cy="27.463175"
       r="1.9435034" />
    <circle
       id="path125-6"
       cx="37.312805"
       cy="28.459723"
       r="1.9435034" />
    <circle
       id="path125-7"
       cx="180.04466"
       cy="26.492188"
       r="1.9435034" />
    <circle
       id="path125-5"
       cx="161.54999"
       cy="23.527594"
       r="1.9435034" />
    <path
       style="fill:none;stroke:#000000;stroke-width:1px;stroke-linecap:butt;stroke-linejoin:miter;stroke-opacity:1"
       d="M 61.064592,135.43894 L 61.786763,126.52399 L 80.20225,125.96822 L 85.016818,130.524 L 84.258278,135.62638 L 81.454002,138.67473 L 73.911235,139.94731 L 74.349998,146.91294 L 77.437607,147.55067 L 78.624335,150.68543 L 79.844595,173.19188 L 74.018181,174.27542 L 71.166228,173.62389 L 70.122899,170.22946 L 50.019728,170.99915 L 47.393183,160.36313 L 48.824066,151.52693 L 35.771469,154.76236 L 32.831923,144.33718 L 35.841515,131.2202 L 52.879456,129.04253 L 51.62008,138.39 Z"
       id="path160"
       sodipodi:nodetypes="ccccccccccccccccccccccc" />
    <path
       style="fill:none;stroke:#000000;stroke-width:1px;stroke-linecap:butt;stroke-linejoin:miter;stroke-opacity:1"
       d="M 0.44321428,326.92247 L 73.144842,325.44998 V 342.44206 L 1.1158466,347.13983 L -0.02414864,340.67461 Z"
       id="path164"
       sodipodi:nodetypes="cccccc" />
    <path
       style="fill:none;stroke:#000000;stroke-width:1px;stroke-linecap:butt;stroke-linejoin:miter;stroke-opacity:1"
       d="M 153.32589,250.188 L 175.80317,247.02006 L 177.85261,265.7478 L 178.25064,275.61735 L 194.20493,277.75751 L 195.6414,291.01186 H 177.01546 L 178.26429,319.01193 L 133.71143,318.90886 L 132.97366,304.66526 L 154.74434,300.23046 Z"
       id="path166"
       sodipodi:nodetypes="cccccccccccc" />
    <path
       style="fill:none;stroke:#000000;stroke-width:1px;stroke-linecap:butt;stroke-linejoin:miter;stroke-opacity:1"
       d="M 109.19875,420.92705 L 171.16,417.67776 L 171.61929,422.20599 L 172.11856,428.78079 L 212.51343,425.66369 L 218.18706,430.98477 V 442.29103 L 145.50674,444.76945 L 145.06222,432.56653 L 107.87315,432.8866 Z"
       id="path168"
       sodipodi:nodetypes="ccccccccccc" />
    <path
       style="fill:none;stroke:#000000;stroke-width:1px;stroke-linecap:butt;stroke-linejoin:miter;stroke-opacity:1"
       d="M 36.945983,443.52535 L 60.976373,442.25515 L 61.974536,448.15371 L 62.579241,457.00054 L 66.202966,456.81083 L 64.661521,444.29443 L 76.698902,442.71098 L 78.872264,455.31055 L 85.164528,456.26475 L 84.054417,472.09705 L 77.824359,471.96733 L 72.889626,474.50093 L 60.723015,483.43942 V 500.4139 L 43.092646,499.92768 L 45.745616,475.91909 L 44.861376,458.11816 H 38.052478 Z"
       id="path170"
       sodipodi:nodetypes="ccccccccccccccccccc" />
    <path
       style="fill:none;stroke:#000000;stroke-width:1px;stroke-linecap:butt;stroke-linejoin:miter;stroke-opacity:1"
       d="M 175.82931,519.43193 H 185.95058 L 190.61645,541.9328 L 191.50602,549.05023 L 196.30917,563.2786 L 192.12169,566.7855 L 170.18695,568.71779 L 169.53565,553.44676 L 178.13501,549.4493 Z"
       id="path172"
       sodipodi:nodetypes="cccccccccc" />
    <path
       style="fill:none;stroke:#000000;stroke-width:1px;stroke-linecap:butt;stroke-linejoin:miter;stroke-opacity:1"
       d="M 83.434172,621.41988 L 92.994153,612.93796 L 114.64609,618.04165 L 115.1855,633.21273 L 100.15599,632.83329 L 100.67758,658.79215 L 86.281991,660.09475 L 84.216659,651.37461 Z"
       id="path174"
       sodipodi:nodetypes="ccccccccc" />
    <path
       style="fill:none;stroke:#000000;stroke-width:1px;stroke-linecap:butt;stroke-linejoin:miter;stroke-opacity:1"
       d="M 76.027215,794.94122 L 92.871081,787.15959 L 106.50995,795.94361 L 107.15277,826.16525 L 116.11947,829.85143 V 844.60061 L 81.648797,843.46881 L 78.481891,834.17003 L 89.789221,828.33017 L 91.182464,818.50237 L 77.673725,817.14526 L 67.020858,817.55712 L 62.572446,801.873 Z"
       id="path176"
       sodipodi:nodetypes="cccccccccccccc" />
    <path
       style="fill:none;stroke:#000000;stroke-width:1px;stroke-linecap:butt;stroke-linejoin:miter;stroke-opacity:1"
       d="M 272.46116,141.96722 L 333.49374,142.11607 V 157.54037 H 361.22329 L 364.70015,174.43759 L 282.08994,175.35592 L 278.8846,163.13567 L 296.22202,157.72488 L 269.90578,157.24744 Z"
       id="path178" />
    <path
       style="fill:none;stroke:#000000;stroke-width:1px;stroke-linecap:butt;stroke-linejoin:miter;stroke-opacity:1"
       d="M 96.765668,222.86007 L 128.10096,222.39317 L 130.43639,215.81011 L 175.94736,216.85411 L 177.50727,234.7127 L 151.29927,235.77647 L 127.99138,235.85099 L 121.53194,236.3914 L 121.77586,248.81359 L 109.78095,250.01811 L 106.56304,243.52284 L 106.48173,237.17708 L 97.992306,236.13356 Z"
       id="path180"
       sodipodi:nodetypes="cccccccccccccc" />
    <path
       style="fill:none;stroke:#000000;stroke-width:1px;stroke-linecap:butt;stroke-linejoin:miter;stroke-opacity:1"
       d="M 282.22286,244.00642 L 341.08496,244.70927 L 342.3614,259.43497 L 330.53249,260.35809 L 316.61028,259.79024 L 325.82071,267.81455 L 352.92219,267.03835 L 359.15575,275.90292 L 356.45552,283.78904 L 287.2273,281.08986 L 287.93397,294.28401 L 272.76197,293.1089 L 261.44539,292.46679 L 261.10952,279.67651 L 272.48393,277.60361 L 261.29215,271.21039 L 262.34184,257.87852 L 271.56463,252.9818 L 258.78075,247.95977 L 268.62672,237.61223 L 283.38771,237.46227 Z"
       id="path182"
       sodipodi:nodetypes="cccccccccccccccccccccc" />
    <path
       style="fill:none;stroke:#000000;stroke-width:1px;stroke-linecap:butt;stroke-linejoin:miter;stroke-opacity:1"
       d="M 240.21509,379.29959 L 288.10721,375.99634 L 292.61178,381.06074 L 295.44755,385.58244 L 288.67623,396.60464 L 245.82573,393.5737 L 235.96123,395.53411 L 237.91601,382.09609 Z"
       id="path184"
       sodipodi:nodetypes="ccccccccc" />
    <path
       style="fill:none;stroke:#000000;stroke-width:1px;stroke-linecap:butt;stroke-linejoin:miter;stroke-opacity:1"
       d="M 267.03426,469.90658 H 278.96907 L 280.82633,500.16571 L 280.65696,531.22146 L 256.24867,531.82955 L 232.05856,530.52476 L 232.2898,516.83329 L 264.04528,513.05963 L 262.75089,503.78971 L 239.17456,502.42192 V 487.12779 L 266.20734,488.63246 Z"
       id="path186"
       sodipodi:nodetypes="ccccccccccccc" />
    <path
       style="fill:none;stroke:#000000;stroke-width:1px;stroke-linecap:butt;stroke-linejoin:miter;stroke-opacity:1"
       d="M 165.29903,693.26832 L 172.5716,690.1346 L 179.29198,690.65082 L 178.14916,698.64045 L 204.92425,700.03004 L 205.98131,710.28687 L 204.77379,715.5506 L 158.95537,716.18483 L 154.51634,690.17452 L 160.18612,691.23442 Z"
       id="path1011"
       sodipodi:nodetypes="ccccccccccc" />
    <path
       style="fill:none;stroke:#000000;stroke-width:1px;stroke-linecap:butt;stroke-linejoin:miter;stroke-opacity:1"
       d="M 184.9185,758.53726 L 194.42146,757.09367 L 197.22688,760.80717 L 198.92481,765.22403 H 208.94843 L 208.44001,779.58099 H 198.95366 L 194.08631,792.86986 L 184.04341,793.2927 V 779.0631 H 167.18629 L 167.9042,762.35973 L 182.01738,763.34541 Z"
       id="path1013"
       sodipodi:nodetypes="cccccccccccccc" />
    <path
       style="fill:none;stroke:#000000;stroke-width:1px;stroke-linecap:butt;stroke-linejoin:miter;stroke-opacity:1"
       d="M 304.36742,594.52703 L 309.73914,617.08133 L 309.62193,622.46407 L 327.61776,623.96032 L 326.95277,638.97051 L 307.64027,639.59521 L 299.35789,642.70218 L 290.16606,642.99236 L 288.65047,638.82692 L 276.5509,638.35811 L 274.45239,621.73483 L 291.12666,618.187 L 292.39424,594.80026 Z"
       id="path1015" />
    <path
       style="fill:none;stroke:#000000;stroke-width:1px;stroke-linecap:butt;stroke-linejoin:miter;stroke-opacity:1"
       d="M 375.63902,381.5638 V 392.45937 L 383.22447,393.8659 L 383.2872,399.89086 L 408.41913,402.02255 L 408.81062,417.06069 L 384.11124,419.2696 L 378.80007,427.72557 L 370.33955,435.07761 L 341.88247,432.52255 L 338.64232,413.65881 L 340.21077,389.59895 L 359.7021,389.08734 L 360.63639,381.52047 Z"
       id="path1017" />
    <path
       style="fill:none;stroke:#000000;stroke-width:1px;stroke-linecap:butt;stroke-linejoin:miter;stroke-opacity:1"
       d="M 392.95613,558.93043 L 442.85756,556.97536 L 443.07643,570.73519 L 408.1678,572.96982 L 390.94783,572.28292 Z"
       id="path1019" />
    <path
       style="fill:none;stroke:#000000;stroke-width:1px;stroke-linecap:butt;stroke-linejoin:miter;stroke-opacity:1"
       d="M 510.25623,108.51779 L 524.65131,111.23063 L 523.22514,120.38028 L 533.37266,120.7018 L 537.15689,134.77237 L 521.14844,135.37998 L 524.0767,165.41006 L 506.55183,163.96011 L 507.93389,135.84252 L 473.59329,137.73252 L 475.52653,124.06888 L 510.30628,121.04195 Z"
       id="path1021" />
    <path
       style="fill:none;stroke:#000000;stroke-width:1px;stroke-linecap:butt;stroke-linejoin:miter;stroke-opacity:1"
       d="M 442.851,303.75116 L 460.29662,307.45724 L 482.15507,311.91651 L 486.77282,325.7491 L 495.28128,354.71853 L 471.80816,350.42372 L 463.5073,338.28239 H 440.92595 L 440.39917,323.11245 L 407.50405,322.09179 L 405.70965,311.41915 Z"
       id="path1023" />
    <path
       style="fill:none;stroke:#000000;stroke-width:1px;stroke-linecap:butt;stroke-linejoin:miter;stroke-opacity:1"
       d="M 500.22944,523.36401 L 549.84943,518.58927 L 554.51432,530.37688 L 546.69492,536.99646 H 515.24978 L 515.38282,564.3176 L 499.38465,562.31266 L 498.17241,540.96119 Z"
       id="path1025"
       sodipodi:nodetypes="ccccccccc" />
    <path
       style="fill:none;stroke:#000000;stroke-width:1px;stroke-linecap:butt;stroke-linejoin:miter;stroke-opacity:1"
       d="M 454.29806,795.86934 L 479.61211,791.07454 L 488.80238,800.59782 H 500.8135 L 538.68818,801.60112 L 538.4734,819.66942 L 504.73529,817.65763 L 487.25118,813.86168 L 476.45119,816.37142 L 465.62878,822.15834 L 468.00785,840.05744 H 451.13645 L 449.9789,818.24953 L 447.72429,807.42335 Z"
       id="path1027" />
    <path
       style="fill:none;stroke:#000000;stroke-width:1px;stroke-linecap:butt;stroke-linejoin:miter;stroke-opacity:1"
       d="M 395.22164,728.93198 L 422.47461,727.71679 L 430.49185,736.38637 L 424.02218,736.87322 L 419.74315,736.29075 L 420.31104,755.14864 L 416.00118,758.05631 V 773.23237 L 396.28625,772.61946 L 384.1486,779.16776 L 362.48401,770.55504 L 362.16435,759.8311 L 349.93253,759.07679 L 348.49408,744.75613 L 365.34268,743.5052 Z"
       id="path1029"
       sodipodi:nodetypes="cccccccccccccccc" />
    <path
       style="fill:none;stroke:#000000;stroke-width:1px;stroke-linecap:butt;stroke-linejoin:miter;stroke-opacity:1"
       d="M 593.52059,209.2231 L 612.48617,210.3457 L 613.48798,214.80426 L 612.48617,219.22924 L 632.17793,219.03962 L 635.4873,233.28556 L 627.66382,234.97646 L 616.11948,232.919 V 241.32063 L 659.9441,250.7129 L 658.31342,262.19272 L 599.08338,256.04853 Z"
       id="path1031"
       sodipodi:nodetypes="ccccccccccccc" />
    <path
       style="fill:none;stroke:#000000;stroke-width:1px;stroke-linecap:butt;stroke-linejoin:miter;stroke-opacity:1"
       d="M 649.74731,288.81437 L 671.71662,293.17391 L 673.4256,339.21918 L 633.82636,339.76052 L 634.06458,329.08897 H 618.73603 L 619.3117,314.15392 L 648.98979,311.94613 Z"
       id="path1033" />
    <path
       style="fill:none;stroke:#000000;stroke-width:1px;stroke-linecap:butt;stroke-linejoin:miter;stroke-opacity:1"
       d="M 645.91535,466.94063 L 646.41249,497.08462 L 631.2949,499.48846 L 631.06923,513.93015 L 614.80398,520.2858 L 585.12587,522.14596 L 582.01908,509.28116 L 591.35282,505.82395 L 591.64167,488.82272 L 605.15573,487.70545 L 608.95907,466.45046 L 621.86824,465.72904 Z"
       id="path1035" />
    <path
       style="fill:none;stroke:#000000;stroke-width:1px;stroke-linecap:butt;stroke-linejoin:miter;stroke-opacity:1"
       d="M 600.94479,644.86034 L 618.78493,642.77074 L 622.2895,650.94512 V 658.5783 L 636.39682,662.50628 L 635.16115,696.0536 L 625.90659,697.15137 L 620.20746,689.04248 L 620.06139,677.69517 L 614.67009,679.74621 L 614.19098,684.30643 L 608.30653,684.90719 L 598.50684,669.87887 L 559.49398,668.51361 L 559.8299,652.31214 H 599.04788 Z"
       id="path1037"
       sodipodi:nodetypes="ccccccccccccccccc" />
    <path
       style="fill:none;stroke:#000000;stroke-width:1px;stroke-linecap:butt;stroke-linejoin:miter;stroke-opacity:1"
       d="M 416.71547,657.78068 L 441.67289,650.7074 L 465.69759,649.32496 L 468.27136,663.31214 L 468.07482,667.76635 L 454.58541,669.91954 L 418.54479,670.53622 Z"
       id="path1039" />
    <path
       style="fill:none;stroke:#000000;stroke-width:1px;stroke-linecap:butt;stroke-linejoin:miter;stroke-opacity:1"
       d="M 766.60883,135.66327 L 766.8314,153.99839 L 787.68768,153.43983 L 787.46126,177.49099 L 767.29232,174.29699 L 762.83546,212.05028 H 745.66528 L 735.63223,175.56414 L 717.16689,173.00114 L 717.25422,163.71736 L 717.33443,156.54161 L 737.22015,153.4442 L 743.61731,138.2765 L 747.8147,106.7956 L 761.76245,103.98212 L 763.61433,114.53644 L 805.42207,116.61925 L 798.42302,133.29328 Z"
       id="path1041"
       sodipodi:nodetypes="ccccccccccccccccccc" />
    <path
       style="fill:none;stroke:#000000;stroke-width:1px;stroke-linecap:butt;stroke-linejoin:miter;stroke-opacity:1"
       d="M 752.27694,307.46579 L 771.41463,308.44939 L 778.81394,316.33821 L 775.62542,327.19162 L 763.34719,325.09093 V 329.38008 L 770.97547,334.79524 L 764.48002,346.11584 L 746.21611,345.03507 L 746.41558,324.45484 Z"
       id="path1043" />
    <path
       style="fill:none;stroke:#000000;stroke-width:1px;stroke-linecap:butt;stroke-linejoin:miter;stroke-opacity:1"
       d="M 695.21432,498.33554 L 725.42713,500.83731 L 733.97141,501.41339 L 731.38225,517.44247 L 742.43843,535.46847 V 548.76005 L 729.15098,552.69421 L 730.78645,564.10036 H 710.93789 L 705.83681,553.1238 L 706.83581,515.26756 H 691.07486 Z"
       id="path1045"
       sodipodi:nodetypes="ccccccccccccc" />
    <path
       style="fill:none;stroke:#000000;stroke-width:1px;stroke-linecap:butt;stroke-linejoin:miter;stroke-opacity:1"
       d="M 825.80264,622.98757 L 856.47127,625.28811 L 854.80682,643.49267 L 853.97458,677.05486 L 843.8706,689.96316 H 830.16306 L 819.43164,678.13919 L 809.04197,677.9192 L 804.0912,674.27773 L 804.97936,664.69491 L 822.32478,663.51217 L 824.29005,651.57055 H 832.39995 L 833.98968,642.28675 L 824.12838,637.94667 Z"
       id="path1047"
       sodipodi:nodetypes="cccccccccccccccc" />
    <path
       style="fill:none;stroke:#000000;stroke-width:1px;stroke-linecap:butt;stroke-linejoin:miter;stroke-opacity:1"
       d="M 858.84317,774.12708 L 877.825,773.63425 L 875.35846,788.42895 L 869.54792,789.06478 L 863.22598,806.41349 L 823.95558,804.38497 L 824.8008,792.01564 L 844.54489,791.51053 L 839.93386,775.92919 Z"
       id="path1049" />
    <path
       style="fill:none;stroke:#000000;stroke-width:1px;stroke-linecap:butt;stroke-linejoin:miter;stroke-opacity:1"
       d="M 868.15629,224.7707 L 883.60647,216.34768 L 924.2406,221.18516 L 919.69075,253.63167 L 920.83863,294.32064 L 903.71079,294.70982 L 902.85012,255.98985 L 889.18845,254.44606 L 886.71846,243.0388 L 881.64514,245.17242 L 881.84067,259.66964 L 865.37885,259.8308 Z"
       id="path1051" />
    <path
       style="fill:none;stroke:#000000;stroke-width:1px;stroke-linecap:butt;stroke-linejoin:miter;stroke-opacity:1"
       d="M 871.03318,464.31805 L 898.5756,466.82448 L 897.05708,491.82817 L 905.91151,486.60627 L 907.97889,464.1559 L 924.62067,461.79431 L 924.95287,506.62658 L 895.38862,503.57627 L 893.94171,521.50793 L 873.55115,527.90123 L 868.79996,516.9776 L 866.6011,487.3902 Z"
       id="path1053" />
    <path
       style="fill:none;stroke:#000000;stroke-width:1px;stroke-linecap:butt;stroke-linejoin:miter;stroke-opacity:1"
       d="M 956.66079,204.22984 H 972.67856 L 974.66417,245.51259 L 968.64938,259.71642 V 283.74888 L 949.27242,283.41668 V 255.43261 H 938.01589 L 937.68369,239.64231 H 957.43091 Z"
       id="path1055" />
    <path
       style="fill:none;stroke:#000000;stroke-width:1px;stroke-linecap:butt;stroke-linejoin:miter;stroke-opacity:1"
       d="M 1038.6617,100.8943 L 1060.9377,97.24016 L 1070.8792,98.399087 L 1081.1623,97.572361 L 1079.7796,144.69237 L 1066.0249,150.60687 L 1052.7947,143.24265 L 1054.7879,115.9376 H 1040.8896 Z"
       id="path1057"
       sodipodi:nodetypes="cccccccccc" />
    <path
       style="fill:none;stroke:#000000;stroke-width:1px;stroke-linecap:butt;stroke-linejoin:miter;stroke-opacity:1"
       d="M 1132.7124,121.83649 L 1132.4452,144.79041 L 1155.8646,145.0419 L 1157.9252,150.93033 L 1160.9735,159.7626 L 1147.3059,165.94617 L 1146.5888,200.95199 L 1132.378,199.81634 L 1130.524,164.98316 H 1124.8398 L 1126.8329,202.44978 L 1109.1959,201.03859 L 1110.0449,186.04989 L 1110.1939,166.61723 L 1084.093,164.04808 L 1086.0361,150.51112 L 1115.3659,147.1608 L 1114.5263,135.26514 L 1091.6789,136.56253 L 1091.0146,120.57818 Z"
       id="path1059"
       sodipodi:nodetypes="ccccccccccccccccccccc" />
    <path
       style="fill:none;stroke:#000000;stroke-width:1px;stroke-linecap:butt;stroke-linejoin:miter;stroke-opacity:1"
       d="M 1049.1064,370.26834 L 1072.1251,367.05651 L 1077.667,359.80562 L 1095.7723,357.92252 L 1099.4466,366.90839 L 1091.5808,432.89717 L 1090.6327,441.52275 L 1073.302,441.04466 L 1063.1427,409.49105 L 1068.835,383.83059 L 1048.4384,382.50754 Z"
       id="path1061" />
    <path
       style="fill:none;stroke:#000000;stroke-width:1px;stroke-linecap:butt;stroke-linejoin:miter;stroke-opacity:1"
       d="M 1020.6753,412.26075 L 1033.3045,412.96821 L 1034.2323,449.44382 L 1019.3022,449.50213 L 1016.6732,417.23228 Z"
       id="path1063" />
    <path
       style="fill:none;stroke:#000000;stroke-width:1px;stroke-linecap:butt;stroke-linejoin:miter;stroke-opacity:1"
       d="M 1059.7048,565.89666 L 1077.2397,584.55568 L 1077.2458,617.23162 L 1024.1925,617.81989 L 1023.6946,596.06476 L 1056.6549,595.11329 Z"
       id="path1065"
       sodipodi:nodetypes="ccccccc" />
    <path
       style="fill:none;stroke:#000000;stroke-width:1px;stroke-linecap:butt;stroke-linejoin:miter;stroke-opacity:1"
       d="M 905.91729,678.37196 L 933.65524,677.43822 L 938.45058,683.22857 L 938.97721,693.88292 L 918.49358,692.83411 L 916.22703,703.62912 L 918.49358,713.46341 L 874.57279,715.68883 L 842.92882,719.12009 L 842.705,704.86921 L 881.46198,701.45454 L 880.42807,680.10548 L 878.99083,666.64394 L 891.00976,667.00084 L 897.28686,677.59849 Z"
       id="path1067"
       sodipodi:nodetypes="cccccccccccccccc" />
    <path
       style="fill:none;stroke:#000000;stroke-width:1px;stroke-linecap:butt;stroke-linejoin:miter;stroke-opacity:1"
       d="M 969.81303,781.85759 L 1016.1016,783.37308 L 1022.3284,788.52144 L 1033.1559,790.37793 L 1047.8462,799.16763 V 812.28043 L 1029.7779,815.4554 L 1020.1998,814.11928 L 1017.502,801.32587 L 968.40169,800.25122 Z"
       id="path1069"
       sodipodi:nodetypes="ccccccccccc" />
    <path
       style="fill:none;stroke:#000000;stroke-width:1px;stroke-linecap:butt;stroke-linejoin:miter;stroke-opacity:1"
       d="M 1134.2775,267.28427 L 1171.9167,262.77104 L 1174.4162,280.98635 L 1154.416,283.02455 L 1135.281,282.00657 Z"
       id="path1071" />
    <path
       style="fill:none;stroke:#000000;stroke-width:1px;stroke-linecap:butt;stroke-linejoin:miter;stroke-opacity:1"
       d="M 1108.7034,478.27365 L 1138.0442,474.61546 L 1139.3353,461.04391 L 1165.1723,458.9422 L 1160.2358,494.69305 L 1111.8063,494.91549 Z"
       id="path1073" />
    <path
       style="fill:none;stroke:#000000;stroke-width:1px;stroke-linecap:butt;stroke-linejoin:miter;stroke-opacity:1"
       d="M 1168.4401,657.99358 L 1183.4264,658.63913 L 1186.2518,701.25969 L 1200.0437,705.81766 L 1200.9636,716.08419 L 1200.0437,721.97906 L 1156.0843,708.48894 L 1148.4388,707.0013 L 1141.7677,707.93335 L 1142.8649,696.95977 L 1163.6661,691.16911 Z"
       id="path1075"
       sodipodi:nodetypes="cccccccccccc" />
    <path
       style="fill:none;stroke:#000000;stroke-width:1px;stroke-linecap:butt;stroke-linejoin:miter;stroke-opacity:1"
       d="M 1174.4653,730.1092 L 1189.292,729.37943 L 1202.7242,729.69049 L 1213.5081,695.40564 L 1250.9484,693.88949 L 1252.3907,709.67345 L 1232.0667,733.5733 L 1256.7985,743.90872 L 1216.7014,752.66049 L 1175.7196,754.08776 Z"
       id="path1077"
       sodipodi:nodetypes="ccccccccccc" />
    <path
       style="fill:none;stroke:#000000;stroke-width:1px;stroke-linecap:butt;stroke-linejoin:miter;stroke-opacity:1"
       d="M 911.71692,328.3362 L 925.35429,329.51414 L 923.69903,369.81902 L 876.37103,371.4978 L 843.29667,367.99733 L 842.42399,352.00423 L 894.57227,353.28075 L 908.01201,354.06573 Z"
       id="path1079" />
    <path
       style="fill:none;stroke:#000000;stroke-width:1px;stroke-linecap:butt;stroke-linejoin:miter;stroke-opacity:1"
       d="M 1212.6428,322.8373 L 1236.6545,326.90572 L 1224.7485,341.57364 L 1223.4821,364.69243 L 1229.3566,373.14774 L 1231.9297,394.33439 L 1233.915,420.74652 L 1216.2796,420.4566 L 1205.0004,382.21083 L 1169.87,380.8517 L 1163.8463,364.33247 L 1203.9942,362.15483 L 1200.4887,330.50462 Z"
       id="path1081"
       sodipodi:nodetypes="cccccccccccccc" />
    <circle
       id="path125-6-3"
       cx="214.09253"
       cy="26.47871"
       r="1.9435034" />
    <circle
       id="path125-6-3-5"
       cx="249.99345"
       cy="25.252161"
       r="1.9435034" />
    <circle
       id="path125-6-3-6"
       cx="276.38608"
       cy="27.535442"
       r="1.9435034" />
    <circle
       id="path125-6-3-2"
       cx="337.23074"
       cy="34.24736"
       r="1.9435034" />
    <circle
       id="path125-6-3-9"
       cx="413.37054"
       cy="30.661299"
       r="1.9435034" />
    <circle
       id="path125-6-3-1"
       cx="377.20065"
       cy="32.91164"
       r="1.9435034" />
    <circle
       id="path125-6-3-27"
       cx="486.41174"
       cy="25.735321"
       r="1.9435034" />
    <circle
       id="path125-6-3-0"
       cx="458.81464"
       cy="22.030249"
       r="1.9435034" />
    <circle
       id="path125-6-3-93"
       cx="538.61829"
       cy="30.513138"
       r="1.9435034" />
    <circle
       id="path125-6-3-60"
       cx="566.12268"
       cy="31.883097"
       r="1.9435034" />
    <circle
       id="path125-6-3-62"
       cx="611.17053"
       cy="44.76897"
       r="1.9435034" />
    <circle
       id="path125-6-3-61"
       cx="659.8609"
       cy="56.732296"
       r="1.9435034" />
    <circle
       id="path125-6-3-8"
       cx="635.16089"
       cy="20.687698"
       r="1.9435034" />
    <circle
       id="path125-6-3-7"
       cx="689.68951"
       cy="26.953083"
       r="1.9435034" />
    <circle
       id="path125-6-3-92"
       cx="713.97955"
       cy="20.341877"
       r="1.9435034" />
    <circle
       id="path125-6-3-02"
       cx="742.29059"
       cy="24.618301"
       r="1.9435034" />
    <circle
       id="path125-6-3-3"
       cx="781.02118"
       cy="24.43803"
       r="1.9435034" />
    <circle
       id="path125-6-3-75"
       cx="807.92944"
       cy="29.381472"
       r="1.9435034" />
    <circle
       id="path125-6-3-922"
       cx="871.91382"
       cy="22.835361"
       r="1.9435034" />
    <circle
       id="path125-6-3-89"
       cx="895.14209"
       cy="38.595001"
       r="1.9435034" />
    <circle
       id="path125-6-3-73"
       cx="983.54907"
       cy="42.485355"
       r="1.9435034" />
    <circle
       id="path125-6-3-612"
       cx="1033.6454"
       cy="28.567554"
       r="1.9435034" />
    <circle
       id="path125-6-3-931"
       cx="1075.5465"
       cy="19.40247"
       r="1.9435034" />
    <circle
       id="path125-6-3-94"
       cx="1120.3933"
       cy="55.16275"
       r="1.9435034" />
    <circle
       id="path125-6-3-78"
       cx="1128.475"
       cy="21.561295"
       r="1.9435034" />
    <circle
       id="path125-6-3-4"
       cx="1146.7108"
       cy="31.139616"
       r="1.9435034" />
    <circle
       id="path125-6-3-50"
       cx="1185.5813"
       cy="42.000729"
       r="1.9435034" />
    <circle
       id="path125-6-3-36"
       cx="1202.48"
       cy="36.819096"
       r="1.9435034" />
    <circle
       id="path125-6-3-10"
       cx="1256.7195"
       cy="32.151424"
       r="1.9435034" />
  </g>
</svg>
