<?xml version="1.0" encoding="UTF-8" standalone="no"?>
<svg
   xmlns:dc="http://purl.org/dc/elements/1.1/"
   xmlns:cc="http://creativecommons.org/ns#"
   xmlns:rdf="http://www.w3.org/1999/02/22-rdf-syntax-ns#"
   xmlns:svg="http://www.w3.org/2000/svg"
   xmlns="http://www.w3.org/2000/svg"
   xmlns:xlink="http://www.w3.org/1999/xlink"
   xmlns:sodipodi="http://sodipodi.sourceforge.net/DTD/sodipodi-0.dtd"
   xmlns:inkscape="http://www.inkscape.org/namespaces/inkscape"
   width="1275"
   height="900"
   viewBox="0 0 1275 900"
   version="1.1"
   id="svg2146"
   inkscape:version="1.0 (9f2f71dc58, 2020-08-02)"
   sodipodi:docname="polygon_mapping_master.svg">
  <defs
     id="defs2140" />
  <sodipodi:namedview
     id="base"
     pagecolor="#ffffff"
     bordercolor="#666666"
     borderopacity="1.0"
     inkscape:pageopacity="0.0"
     inkscape:pageshadow="2"
     inkscape:zoom="1.9160636"
     inkscape:cx="34.668964"
     inkscape:cy="110.81895"
     inkscape:document-units="px"
     inkscape:current-layer="layer1"
     inkscape:document-rotation="0"
     showgrid="false"
     units="px"
     inkscape:window-width="1848"
     inkscape:window-height="1016"
     inkscape:window-x="72"
     inkscape:window-y="27"
     inkscape:window-maximized="1" />
  <metadata
     id="metadata2143">
    <rdf:RDF>
      <cc:Work
         rdf:about="">
        <dc:format>image/svg+xml</dc:format>
        <dc:type
           rdf:resource="http://purl.org/dc/dcmitype/StillImage" />
        <dc:title></dc:title>
      </cc:Work>
    </rdf:RDF>
  </metadata>
  <g
     inkscape:label="Layer 1"
     inkscape:groupmode="layer"
     id="layer1">
    <image
       sodipodi:absref="/home/stefan/Dropbox/Coding/data_painting/images/sneyder_normalized.png"
       xlink:href="sneyder_normalized.png"
       y="-0.13739778"
       x="-0.22768942"
       id="image2158"
       preserveAspectRatio="none"
       height="902.6131"
       width="1278.7019" />
    <path
       style="fill:none;stroke:#000000;stroke-width:1px;stroke-linecap:butt;stroke-linejoin:miter;stroke-opacity:1"
       d="M -0.22768942,-0.13739778 H 1278.4742 L 1278.4511,31.531585 1227.4428,35.169347 1129.1403,35.981517 C 1129.1403,35.981517 1070.4624,36.430303 1023.5201,36.802916 976.57785,37.175529 941.3833,37.417146 847.48688,38.228518 753.59046,39.03989 460.14266,41.785807 460.14266,41.785807 L 266.47055,43.564452 72.798446,45.343096 40.819283,40.572938 0.8220446,37.783815 Z"
       id="cloud"
       inkscape:label="#cloud"
       sodipodi:nodetypes="ccccccccccccc" />
    <circle
       id="path2224"
       cx="336.98853"
       cy="44.793179"
       r="4.0642133" />
    <path
       style="fill:none;stroke:#000000;stroke-width:1px;stroke-linecap:butt;stroke-linejoin:miter;stroke-opacity:1"
       d="M 515.7488,317.59873 538.91656,316.67785 558.22848,316.79489 556.85377,330.64251 565.88657,335.01808 577.90145,336.99631 576.96512,349.42588 559.74462,353.46532 531.9138,351.75277 528.9367,338.40143 522.65499,333.51276 515.15057,331.19774 Z"
       id="path2226" />
    <path
       style="fill:none;stroke:#000000;stroke-width:1px;stroke-linecap:butt;stroke-linejoin:miter;stroke-opacity:1"
       d="M 259.88267,342.55606 298.22681,344.65224 300.82621,352.20469 299.23038,360.49362 273.69723,362.62138 272.75462,371.07181 264.79018,377.60919 245.70883,379.17457 239.78383,368.2657 V 350.92581 L 251.09711,352.20248 250.91586,346.1432 H 257.2364 Z"
       id="path2228"
       sodipodi:nodetypes="cccccccccccccc" />
    <path
       style="fill:none;stroke:#000000;stroke-width:1px;stroke-linecap:butt;stroke-linejoin:miter;stroke-opacity:1"
       d="M 899.9598,572.3752 935.05085,568.29334 V 568.29334 L 965.31263,568.16658 968.39717,579.04007 971.98145,581.78651 971.71988,595.78555 950.16254,601.72347 928.61642,602.93319 906.20517,600.19775 897.14677,595.8144 885.52656,597.50556 883.92982,582.24692 894.18128,580.8284 898.77712,579.81959 Z"
       id="path2230" />
    <path
       style="fill:none;stroke:#000000;stroke-width:1px;stroke-linecap:butt;stroke-linejoin:miter;stroke-opacity:1"
       d="M 396.7681,559.68295 446.61224,558.06773 447.28106,571.30412 454.32121,583.71799 452.87571,591.85069 392.22516,593.35941 395.69227,574.81493 Z"
       id="path2232" />
    <path
       style="fill:none;stroke:#000000;stroke-width:1px;stroke-linecap:butt;stroke-linejoin:miter;stroke-opacity:1"
       d="M 621.82826,578.16688 641.24753,579.00362 638.65577,593.73976 646.23322,602.86172 650.93235,614.8363 628.52316,617.41703 599.42766,623.95785 605.77697,604.6446 610.71591,585.95701 Z"
       id="path2234" />
    <path
       style="fill:none;stroke:#000000;stroke-width:1px;stroke-linecap:butt;stroke-linejoin:miter;stroke-opacity:1"
       d="M 1130.2364,634.54054 1158.5597,636.44208 H 1158.7234 L 1159.0469,650.27887 1131.0069,653.11193 1122.0116,651.78478 1121.1705,642.15972 1089.9489,642.60932 1081.3791,639.75231 1081.8287,628.97736 1095.5975,623.93817 1109.3796,626.61395 1121.513,625.61111 Z"
       id="path2236" />
    <path
       style="fill:none;stroke:#000000;stroke-width:1px;stroke-linecap:butt;stroke-linejoin:miter;stroke-opacity:1"
       d="M 977.38296,287.16485 977.83257,308.78547 973.3672,319.96105 975.03543,329.66641 974.47129,355.09713 964.30517,356.81904 959.22126,353.19043 962.05449,323.82451 962.59471,306.79159 V 306.79159 L 963.80111,288.96498 973.68434,287.05818 Z"
       id="path2238" />
    <path
       style="fill:none;stroke:#000000;stroke-width:1px;stroke-linecap:butt;stroke-linejoin:miter;stroke-opacity:1"
       d="M 355.62167,442.11676 404.46979,441.23114 V 453.8341 L 397.10151,459.34903 392.04305,466.56348 392.15305,471.83169 411.18291,475.12192 411.51161,487.66438 391.23748,489.66302 365.41441,487.72004 V 487.72004 L 365.99372,474.1907 377.30751,474.07158 V 474.07158 L 377.62738,458.09649 356.3836,456.95246 Z"
       id="path2240" />
    <circle
       id="path2224-3"
       cx="401.19604"
       cy="44.195534"
       r="4.0642133" />
    <circle
       id="path2224-6"
       cx="494.76437"
       cy="41.230366"
       r="4.0642133" />
    <circle
       id="path2224-7"
       cx="578.26892"
       cy="41.752266"
       r="4.0642133" />
    <circle
       id="path2224-5"
       cx="886.19189"
       cy="38.62085"
       r="4.0642133" />
    <circle
       id="path2224-35"
       cx="941.51361"
       cy="35.489429"
       r="4.0642133" />
    <circle
       id="path2224-62"
       cx="744.7561"
       cy="38.098946"
       r="4.0642133" />
    <circle
       id="path2224-9"
       cx="1149.7531"
       cy="35.489429"
       r="4.0642133" />
    <circle
       id="path2224-1"
       cx="1200.3777"
       cy="33.923717"
       r="4.0642133" />
    <circle
       id="path2224-2"
       cx="42.571533"
       cy="39.801216"
       r="4.0642133" />
    <circle
       id="path2224-70"
       cx="112.73112"
       cy="45.40559"
       r="4.0642133" />
    <circle
       id="path2224-93"
       cx="228.59367"
       cy="44.361786"
       r="4.0642133" />
  </g>
</svg>
